{
  "shell_port": 46145,
  "iopub_port": 46313,
  "stdin_port": 41323,
  "control_port": 35321,
  "hb_port": 36265,
  "ip": "127.0.0.1",
  "key": "572e123f-af9cd23055bb89b6ee96239c",
  "transport": "tcp",
  "signature_scheme": "hmac-sha256",
  "kernel_name": ""
}